<?xml version="1.0" encoding="UTF-8"?>
<svg width="75px" height="75px" viewBox="0 0 75 75" version="1.1" xmlns="http://www.w3.org/2000/svg" xmlns:xlink="http://www.w3.org/1999/xlink">
    <!-- Generator: Sketch 41.2 (35397) - http://www.bohemiancoding.com/sketch -->
    <title>clock</title>
    <desc>Created with Sketch.</desc>
    <defs>
        <linearGradient x1="53.8164318%" y1="-107.581804%" x2="53.8164318%" y2="137.05246%" id="linearGradient-1">
            <stop stop-color="#E3B10C" offset="0%"></stop>
            <stop stop-color="#E07512" offset="100%"></stop>
        </linearGradient>
        <rect id="path-2" x="0" y="0" width="75" height="75" rx="2"></rect>
        <mask id="mask-3" maskContentUnits="userSpaceOnUse" maskUnits="objectBoundingBox" x="0" y="0" width="75" height="75" fill="white">
            <use xlink:href="#path-2"></use>
        </mask>
    </defs>
    <g id="Page-1" stroke="none" stroke-width="1" fill="none" fill-rule="evenodd">
        <g id="HT_main_1" transform="translate(-803.000000, -1350.000000)">
            <g id="bloc1" transform="translate(0.000000, 966.000000)">
                <g id="preim" transform="translate(803.000000, 62.000000)">
                    <g id="clock" transform="translate(0.000000, 322.000000)">
                        <use id="Rectangle-120" stroke="url(#linearGradient-1)" mask="url(#mask-3)" stroke-width="4" xlink:href="#path-2"></use>
                        <g id="Group-8" transform="translate(18.000000, 17.000000)" fill="#E08011">
                            <path d="M19.5,39 C8.73044738,39 0,30.2695526 0,19.5 C0,8.73044738 8.73044738,0 19.5,0 C30.2695526,0 39,8.73044738 39,19.5 C39,30.2695526 30.2695526,39 19.5,39 Z M19.5,37 C29.1649831,37 37,29.1649831 37,19.5 C37,9.83501688 29.1649831,2 19.5,2 C9.83501688,2 2,9.83501688 2,19.5 C2,29.1649831 9.83501688,37 19.5,37 Z" id="Oval-5"></path>
                            <polygon id="Path-20" points="20 7.60644531 18 7.60644531 18 21.2524132 25.2793349 30.2463106 26.8339463 28.9880644 20 20.5444618"></polygon>
                        </g>
                    </g>
                </g>
            </g>
        </g>
    </g>
</svg>